HOMEWORK: HOMEWORK 1.4

How would you print out, in the shell, just the the value in the "name" field, 
for all the product documents in the collection, without extraneous characters 
or braces, sorted alphabetically, ascending? (Check all that would apply.)

[ ] var c = db.products.find( { } ).sort( { name : -1 } ); while( c.hasNext() ) { print( c.next().name); }
[x] var c = db.products.find( { }, { name : 1, _id : 0 } ).sort( { name : 1 } ); while( c.hasNext() ) { print( c.next().name); }
[ ] db.products.find( { }, { name : 1, _id : 0 } ).sort( { name : 1 } )
[x] var c = db.products.find( { } ).sort( { name : 1 } ); c.forEach( function( doc ) { print( doc.name ) } );

